lab2/sim/results/alu.transcript
Reading /opt/modeltech/tcl/vsim/pref.tcl 

# 10.1b_2

proc start {m} {vsim -L unisims_ver -L unimacro_ver -L xilinxcorelib_ver -L secureip work.glbl $m}
set MODULE ALUTestbench
# ALUTestbench
start $MODULE
# vsim -L unisims_ver -L unimacro_ver -L xilinxcorelib_ver -L secureip work.glbl ALUTestbench 
# ** Note: (vsim-3812) Design is being optimized...
# //  ModelSim SE-64 10.1b_2 Jul  3 2012 Linux 2.6.32-279.5.2.el6.centos.plus.x86_64
# //
# //  Copyright 1991-2012 Mentor Graphics Corporation
# //  All Rights Reserved.
# //
# //  THIS WORK CONTAINS TRADE SECRET AND PROPRIETARY INFORMATION
# //  WHICH IS THE PROPERTY OF MENTOR GRAPHICS CORPORATION OR ITS
# //  LICENSORS AND IS SUBJECT TO LICENSE TERMS.
# //
# Loading work.glbl(fast)
# Loading work.ALUTestbench(fast)
# Loading work.ALUdec(fast)
# Loading work.ALU(fast)
add wave $MODULE/*
add wave $MODULE/DUT1/*
add wave $MODULE/DUT2/*
run 100us
# PASS: opcode 100000, funct 010110
# 	A: 0x92153524, B: 0xffffde81, DUTout: 0x921513a5, REFout: 0x921513a5
# PASS: opcode 100001, funct 010110
# 	A: 0x92153524, B: 0xffffde81, DUTout: 0x921513a5, REFout: 0x921513a5
# PASS: opcode 100011, funct 010110
# 	A: 0x92153524, B: 0xffffde81, DUTout: 0x921513a5, REFout: 0x921513a5
# PASS: opcode 100100, funct 010110
# 	A: 0x92153524, B: 0xffffde81, DUTout: 0x921513a5, REFout: 0x921513a5
# PASS: opcode 100101, funct 010110
# 	A: 0x92153524, B: 0xffffde81, DUTout: 0x921513a5, REFout: 0x921513a5
# PASS: opcode 101000, funct 010110
# 	A: 0x92153524, B: 0xffffde81, DUTout: 0x921513a5, REFout: 0x921513a5
# PASS: opcode 101001, funct 010110
# 	A: 0x92153524, B: 0xffffde81, DUTout: 0x921513a5, REFout: 0x921513a5
# PASS: opcode 101011, funct 010110
# 	A: 0x92153524, B: 0xffffde81, DUTout: 0x921513a5, REFout: 0x921513a5
# PASS: opcode 000000, funct 000000
# 	A: 0x92153524, B: 0xffffde81, DUTout: 0x00000000, REFout: 0x00000000
# PASS: opcode 000000, funct 000010
# 	A: 0x92153524, B: 0xffffde81, DUTout: 0x00000000, REFout: 0x00000000
# PASS: opcode 000000, funct 000011
# 	A: 0x92153524, B: 0xffffde81, DUTout: 0xffffffff, REFout: 0xffffffff
# PASS: opcode 000000, funct 000100
# 	A: 0x92153524, B: 0xffffde81, DUTout: 0x00000000, REFout: 0x00000000
# PASS: opcode 000000, funct 000110
# 	A: 0x92153524, B: 0xffffde81, DUTout: 0x00000000, REFout: 0x00000000
# PASS: opcode 000000, funct 000111
# 	A: 0x92153524, B: 0xffffde81, DUTout: 0xffffffff, REFout: 0xffffffff
# PASS: opcode 000000, funct 100001
# 	A: 0x92153524, B: 0xffffde81, DUTout: 0x921513a5, REFout: 0x921513a5
# PASS: opcode 000000, funct 100011
# 	A: 0x92153524, B: 0xffffde81, DUTout: 0x921556a3, REFout: 0x921556a3
# PASS: opcode 000000, funct 100100
# 	A: 0x92153524, B: 0xffffde81, DUTout: 0x92151400, REFout: 0x92151400
# PASS: opcode 000000, funct 100101
# 	A: 0x92153524, B: 0xffffde81, DUTout: 0xffffffa5, REFout: 0xffffffa5
# PASS: opcode 000000, funct 100110
# 	A: 0x92153524, B: 0xffffde81, DUTout: 0x6deaeba5, REFout: 0x6deaeba5
# PASS: opcode 000000, funct 100111
# 	A: 0x92153524, B: 0xffffde81, DUTout: 0x0000005a, REFout: 0x0000005a
# PASS: opcode 000000, funct 101010
# 	A: 0x92153524, B: 0xffffde81, DUTout: 0x00000001, REFout: 0x00000001
# PASS: opcode 000000, funct 101011
# 	A: 0x92153524, B: 0xffffde81, DUTout: 0x00000001, REFout: 0x00000001
# PASS: opcode 100000, funct 101100
# 	A: 0xb1f05663, B: 0xfffffb0d, DUTout: 0xb1f05170, REFout: 0xb1f05170
# PASS: opcode 100001, funct 101100
# 	A: 0xb1f05663, B: 0xfffffb0d, DUTout: 0xb1f05170, REFout: 0xb1f05170
# PASS: opcode 100011, funct 101100
# 	A: 0xb1f05663, B: 0xfffffb0d, DUTout: 0xb1f05170, REFout: 0xb1f05170
# PASS: opcode 100100, funct 101100
# 	A: 0xb1f05663, B: 0xfffffb0d, DUTout: 0xb1f05170, REFout: 0xb1f05170
# PASS: opcode 100101, funct 101100
# 	A: 0xb1f05663, B: 0xfffffb0d, DUTout: 0xb1f05170, REFout: 0xb1f05170
# PASS: opcode 101000, funct 101100
# 	A: 0xb1f05663, B: 0xfffffb0d, DUTout: 0xb1f05170, REFout: 0xb1f05170
# PASS: opcode 101001, funct 101100
# 	A: 0xb1f05663, B: 0xfffffb0d, DUTout: 0xb1f05170, REFout: 0xb1f05170
# PASS: opcode 101011, funct 101100
# 	A: 0xb1f05663, B: 0xfffffb0d, DUTout: 0xb1f05170, REFout: 0xb1f05170
# PASS: opcode 000000, funct 000000
# 	A: 0xb1f05663, B: 0xfffffb0d, DUTout: 0x00000000, REFout: 0x00000000
# PASS: opcode 000000, funct 000010
# 	A: 0xb1f05663, B: 0xfffffb0d, DUTout: 0x00000000, REFout: 0x00000000
# PASS: opcode 000000, funct 000011
# 	A: 0xb1f05663, B: 0xfffffb0d, DUTout: 0xffffffff, REFout: 0xffffffff
# PASS: opcode 000000, funct 000100
# 	A: 0xb1f05663, B: 0xfffffb0d, DUTout: 0x00000000, REFout: 0x00000000
# PASS: opcode 000000, funct 000110
# 	A: 0xb1f05663, B: 0xfffffb0d, DUTout: 0x00000000, REFout: 0x00000000
# PASS: opcode 000000, funct 000111
# 	A: 0xb1f05663, B: 0xfffffb0d, DUTout: 0xffffffff, REFout: 0xffffffff
# PASS: opcode 000000, funct 100001
# 	A: 0xb1f05663, B: 0xfffffb0d, DUTout: 0xb1f05170, REFout: 0xb1f05170
# PASS: opcode 000000, funct 100011
# 	A: 0xb1f05663, B: 0xfffffb0d, DUTout: 0xb1f05b56, REFout: 0xb1f05b56
# PASS: opcode 000000, funct 100100
# 	A: 0xb1f05663, B: 0xfffffb0d, DUTout: 0xb1f05201, REFout: 0xb1f05201
# PASS: opcode 000000, funct 100101
# 	A: 0xb1f05663, B: 0xfffffb0d, DUTout: 0xffffff6f, REFout: 0xffffff6f
# PASS: opcode 000000, funct 100110
# 	A: 0xb1f05663, B: 0xfffffb0d, DUTout: 0x4e0fad6e, REFout: 0x4e0fad6e
# PASS: opcode 000000, funct 100111
# 	A: 0xb1f05663, B: 0xfffffb0d, DUTout: 0x00000090, REFout: 0x00000090
# PASS: opcode 000000, funct 101010
# 	A: 0xb1f05663, B: 0xfffffb0d, DUTout: 0x00000001, REFout: 0x00000001
# PASS: opcode 000000, funct 101011
# 	A: 0xb1f05663, B: 0xfffffb0d, DUTout: 0x00000001, REFout: 0x00000001
# PASS: opcode 100000, funct 001001
# 	A: 0xb2c28465, B: 0xffffd212, DUTout: 0xb2c25677, REFout: 0xb2c25677
# PASS: opcode 100001, funct 001001
# 	A: 0xb2c28465, B: 0xffffd212, DUTout: 0xb2c25677, REFout: 0xb2c25677
# PASS: opcode 100011, funct 001001
# 	A: 0xb2c28465, B: 0xffffd212, DUTout: 0xb2c25677, REFout: 0xb2c25677
# PASS: opcode 100100, funct 001001
# 	A: 0xb2c28465, B: 0xffffd212, DUTout: 0xb2c25677, REFout: 0xb2c25677
# PASS: opcode 100101, funct 001001
# 	A: 0xb2c28465, B: 0xffffd212, DUTout: 0xb2c25677, REFout: 0xb2c25677
# PASS: opcode 101000, funct 001001
# 	A: 0xb2c28465, B: 0xffffd212, DUTout: 0xb2c25677, REFout: 0xb2c25677
# PASS: opcode 101001, funct 001001
# 	A: 0xb2c28465, B: 0xffffd212, DUTout: 0xb2c25677, REFout: 0xb2c25677
# PASS: opcode 101011, funct 001001
# 	A: 0xb2c28465, B: 0xffffd212, DUTout: 0xb2c25677, REFout: 0xb2c25677
# PASS: opcode 000000, funct 000000
# 	A: 0xb2c28465, B: 0xffffd212, DUTout: 0x00000000, REFout: 0x00000000
# PASS: opcode 000000, funct 000010
# 	A: 0xb2c28465, B: 0xffffd212, DUTout: 0x00000000, REFout: 0x00000000
# PASS: opcode 000000, funct 000011
# 	A: 0xb2c28465, B: 0xffffd212, DUTout: 0xffffffff, REFout: 0xffffffff
# PASS: opcode 000000, funct 000100
# 	A: 0xb2c28465, B: 0xffffd212, DUTout: 0x00000000, REFout: 0x00000000
# PASS: opcode 000000, funct 000110
# 	A: 0xb2c28465, B: 0xffffd212, DUTout: 0x00000000, REFout: 0x00000000
# PASS: opcode 000000, funct 000111
# 	A: 0xb2c28465, B: 0xffffd212, DUTout: 0xffffffff, REFout: 0xffffffff
# PASS: opcode 000000, funct 100001
# 	A: 0xb2c28465, B: 0xffffd212, DUTout: 0xb2c25677, REFout: 0xb2c25677
# PASS: opcode 000000, funct 100011
# 	A: 0xb2c28465, B: 0xffffd212, DUTout: 0xb2c2b253, REFout: 0xb2c2b253
# PASS: opcode 000000, funct 100100
# 	A: 0xb2c28465, B: 0xffffd212, DUTout: 0xb2c28000, REFout: 0xb2c28000
# PASS: opcode 000000, funct 100101
# 	A: 0xb2c28465, B: 0xffffd212, DUTout: 0xffffd677, REFout: 0xffffd677
# PASS: opcode 000000, funct 100110
# 	A: 0xb2c28465, B: 0xffffd212, DUTout: 0x4d3d5677, REFout: 0x4d3d5677
# PASS: opcode 000000, funct 100111
# 	A: 0xb2c28465, B: 0xffffd212, DUTout: 0x00002988, REFout: 0x00002988
# PASS: opcode 000000, funct 101010
# 	A: 0xb2c28465, B: 0xffffd212, DUTout: 0x00000001, REFout: 0x00000001
# PASS: opcode 000000, funct 101011
# 	A: 0xb2c28465, B: 0xffffd212, DUTout: 0x00000001, REFout: 0x00000001
# PASS: opcode 100000, funct 010001
# 	A: 0x86d7cd0d, B: 0xfffff176, DUTout: 0x86d7be83, REFout: 0x86d7be83
# PASS: opcode 100001, funct 010001
# 	A: 0x86d7cd0d, B: 0xfffff176, DUTout: 0x86d7be83, REFout: 0x86d7be83
# PASS: opcode 100011, funct 010001
# 	A: 0x86d7cd0d, B: 0xfffff176, DUTout: 0x86d7be83, REFout: 0x86d7be83
# PASS: opcode 100100, funct 010001
# 	A: 0x86d7cd0d, B: 0xfffff176, DUTout: 0x86d7be83, REFout: 0x86d7be83
# PASS: opcode 100101, funct 010001
# 	A: 0x86d7cd0d, B: 0xfffff176, DUTout: 0x86d7be83, REFout: 0x86d7be83
# PASS: opcode 101000, funct 010001
# 	A: 0x86d7cd0d, B: 0xfffff176, DUTout: 0x86d7be83, REFout: 0x86d7be83
# PASS: opcode 101001, funct 010001
# 	A: 0x86d7cd0d, B: 0xfffff176, DUTout: 0x86d7be83, REFout: 0x86d7be83
# PASS: opcode 101011, funct 010001
# 	A: 0x86d7cd0d, B: 0xfffff176, DUTout: 0x86d7be83, REFout: 0x86d7be83
# PASS: opcode 000000, funct 000000
# 	A: 0x86d7cd0d, B: 0xfffff176, DUTout: 0x00000000, REFout: 0x00000000
# PASS: opcode 000000, funct 000010
# 	A: 0x86d7cd0d, B: 0xfffff176, DUTout: 0x00000000, REFout: 0x00000000
# PASS: opcode 000000, funct 000011
# 	A: 0x86d7cd0d, B: 0xfffff176, DUTout: 0xffffffff, REFout: 0xffffffff
# PASS: opcode 000000, funct 000100
# 	A: 0x86d7cd0d, B: 0xfffff176, DUTout: 0x00000000, REFout: 0x00000000
# PASS: opcode 000000, funct 000110
# 	A: 0x86d7cd0d, B: 0xfffff176, DUTout: 0x00000000, REFout: 0x00000000
# PASS: opcode 000000, funct 000111
# 	A: 0x86d7cd0d, B: 0xfffff176, DUTout: 0xffffffff, REFout: 0xffffffff
# PASS: opcode 000000, funct 100001
# 	A: 0x86d7cd0d, B: 0xfffff176, DUTout: 0x86d7be83, REFout: 0x86d7be83
# PASS: opcode 000000, funct 100011
# 	A: 0x86d7cd0d, B: 0xfffff176, DUTout: 0x86d7db97, REFout: 0x86d7db97
# PASS: opcode 000000, funct 100100
# 	A: 0x86d7cd0d, B: 0xfffff176, DUTout: 0x86d7c104, REFout: 0x86d7c104
# PASS: opcode 000000, funct 100101
# 	A: 0x86d7cd0d, B: 0xfffff176, DUTout: 0xfffffd7f, REFout: 0xfffffd7f
# PASS: opcode 000000, funct 100110
# 	A: 0x86d7cd0d, B: 0xfffff176, DUTout: 0x79283c7b, REFout: 0x79283c7b
# PASS: opcode 000000, funct 100111
# 	A: 0x86d7cd0d, B: 0xfffff176, DUTout: 0x00000280, REFout: 0x00000280
# PASS: opcode 000000, funct 101010
# 	A: 0x86d7cd0d, B: 0xfffff176, DUTout: 0x00000001, REFout: 0x00000001
# PASS: opcode 000000, funct 101011
# 	A: 0x86d7cd0d, B: 0xfffff176, DUTout: 0x00000001, REFout: 0x00000001
# PASS: opcode 100000, funct 111101
# 	A: 0xf6d457ed, B: 0xfffff78c, DUTout: 0xf6d44f79, REFout: 0xf6d44f79
# PASS: opcode 100001, funct 111101
# 	A: 0xf6d457ed, B: 0xfffff78c, DUTout: 0xf6d44f79, REFout: 0xf6d44f79
# PASS: opcode 100011, funct 111101
# 	A: 0xf6d457ed, B: 0xfffff78c, DUTout: 0xf6d44f79, REFout: 0xf6d44f79
# PASS: opcode 100100, funct 111101
# 	A: 0xf6d457ed, B: 0xfffff78c, DUTout: 0xf6d44f79, REFout: 0xf6d44f79
# PASS: opcode 100101, funct 111101
# 	A: 0xf6d457ed, B: 0xfffff78c, DUTout: 0xf6d44f79, REFout: 0xf6d44f79
# PASS: opcode 101000, funct 111101
# 	A: 0xf6d457ed, B: 0xfffff78c, DUTout: 0xf6d44f79, REFout: 0xf6d44f79
# PASS: opcode 101001, funct 111101
# 	A: 0xf6d457ed, B: 0xfffff78c, DUTout: 0xf6d44f79, REFout: 0xf6d44f79
# PASS: opcode 101011, funct 111101
# 	A: 0xf6d457ed, B: 0xfffff78c, DUTout: 0xf6d44f79, REFout: 0xf6d44f79
# PASS: opcode 000000, funct 000000
# 	A: 0xf6d457ed, B: 0xfffff78c, DUTout: 0x00000000, REFout: 0x00000000
# PASS: opcode 000000, funct 000010
# 	A: 0xf6d457ed, B: 0xfffff78c, DUTout: 0x00000000, REFout: 0x00000000
# PASS: opcode 000000, funct 000011
# 	A: 0xf6d457ed, B: 0xfffff78c, DUTout: 0xffffffff, REFout: 0xffffffff
# PASS: opcode 000000, funct 000100
# 	A: 0xf6d457ed, B: 0xfffff78c, DUTout: 0x00000000, REFout: 0x00000000
# PASS: opcode 000000, funct 000110
# 	A: 0xf6d457ed, B: 0xfffff78c, DUTout: 0x00000000, REFout: 0x00000000
# PASS: opcode 000000, funct 000111
# 	A: 0xf6d457ed, B: 0xfffff78c, DUTout: 0xffffffff, REFout: 0xffffffff
# PASS: opcode 000000, funct 100001
# 	A: 0xf6d457ed, B: 0xfffff78c, DUTout: 0xf6d44f79, REFout: 0xf6d44f79
# PASS: opcode 000000, funct 100011
# 	A: 0xf6d457ed, B: 0xfffff78c, DUTout: 0xf6d46061, REFout: 0xf6d46061
# PASS: opcode 000000, funct 100100
# 	A: 0xf6d457ed, B: 0xfffff78c, DUTout: 0xf6d4578c, REFout: 0xf6d4578c
# PASS: opcode 000000, funct 100101
# 	A: 0xf6d457ed, B: 0xfffff78c, DUTout: 0xfffff7ed, REFout: 0xfffff7ed
# PASS: opcode 000000, funct 100110
# 	A: 0xf6d457ed, B: 0xfffff78c, DUTout: 0x092ba061, REFout: 0x092ba061
# PASS: opcode 000000, funct 100111
# 	A: 0xf6d457ed, B: 0xfffff78c, DUTout: 0x00000812, REFout: 0x00000812
# PASS: opcode 000000, funct 101010
# 	A: 0xf6d457ed, B: 0xfffff78c, DUTout: 0x00000001, REFout: 0x00000001
# PASS: opcode 000000, funct 101011
# 	A: 0xf6d457ed, B: 0xfffff78c, DUTout: 0x00000001, REFout: 0x00000001
# PASS: opcode 100000, funct 001111
# 	A: 0xe33724c6, B: 0xffff84c5, DUTout: 0xe336a98b, REFout: 0xe336a98b
# PASS: opcode 100001, funct 001111
# 	A: 0xe33724c6, B: 0xffff84c5, DUTout: 0xe336a98b, REFout: 0xe336a98b
# PASS: opcode 100011, funct 001111
# 	A: 0xe33724c6, B: 0xffff84c5, DUTout: 0xe336a98b, REFout: 0xe336a98b
# PASS: opcode 100100, funct 001111
# 	A: 0xe33724c6, B: 0xffff84c5, DUTout: 0xe336a98b, REFout: 0xe336a98b
# PASS: opcode 100101, funct 001111
# 	A: 0xe33724c6, B: 0xffff84c5, DUTout: 0xe336a98b, REFout: 0xe336a98b
# PASS: opcode 101000, funct 001111
# 	A: 0xe33724c6, B: 0xffff84c5, DUTout: 0xe336a98b, REFout: 0xe336a98b
# PASS: opcode 101001, funct 001111
# 	A: 0xe33724c6, B: 0xffff84c5, DUTout: 0xe336a98b, REFout: 0xe336a98b
# PASS: opcode 101011, funct 001111
# 	A: 0xe33724c6, B: 0xffff84c5, DUTout: 0xe336a98b, REFout: 0xe336a98b
# PASS: opcode 000000, funct 000000
# 	A: 0xe33724c6, B: 0xffff84c5, DUTout: 0x00000000, REFout: 0x00000000
# PASS: opcode 000000, funct 000010
# 	A: 0xe33724c6, B: 0xffff84c5, DUTout: 0x00000000, REFout: 0x00000000
# PASS: opcode 000000, funct 000011
# 	A: 0xe33724c6, B: 0xffff84c5, DUTout: 0xffffffff, REFout: 0xffffffff
# PASS: opcode 000000, funct 000100
# 	A: 0xe33724c6, B: 0xffff84c5, DUTout: 0x00000000, REFout: 0x00000000
# PASS: opcode 000000, funct 000110
# 	A: 0xe33724c6, B: 0xffff84c5, DUTout: 0x00000000, REFout: 0x00000000
# PASS: opcode 000000, funct 000111
# 	A: 0xe33724c6, B: 0xffff84c5, DUTout: 0xffffffff, REFout: 0xffffffff
# PASS: opcode 000000, funct 100001
# 	A: 0xe33724c6, B: 0xffff84c5, DUTout: 0xe336a98b, REFout: 0xe336a98b
# PASS: opcode 000000, funct 100011
# 	A: 0xe33724c6, B: 0xffff84c5, DUTout: 0xe337a001, REFout: 0xe337a001
# PASS: opcode 000000, funct 100100
# 	A: 0xe33724c6, B: 0xffff84c5, DUTout: 0xe33704c4, REFout: 0xe33704c4
# PASS: opcode 000000, funct 100101
# 	A: 0xe33724c6, B: 0xffff84c5, DUTout: 0xffffa4c7, REFout: 0xffffa4c7
# PASS: opcode 000000, funct 100110
# 	A: 0xe33724c6, B: 0xffff84c5, DUTout: 0x1cc8a003, REFout: 0x1cc8a003
# PASS: opcode 000000, funct 100111
# 	A: 0xe33724c6, B: 0xffff84c5, DUTout: 0x00005b38, REFout: 0x00005b38
# PASS: opcode 000000, funct 101010
# 	A: 0xe33724c6, B: 0xffff84c5, DUTout: 0x00000001, REFout: 0x00000001
# PASS: opcode 000000, funct 101011
# 	A: 0xe33724c6, B: 0xffff84c5, DUTout: 0x00000001, REFout: 0x00000001
# PASS: opcode 100000, funct 101111
# 	A: 0xf2aff7e5, B: 0xfffff277, DUTout: 0xf2afea5c, REFout: 0xf2afea5c
# PASS: opcode 100001, funct 101111
# 	A: 0xf2aff7e5, B: 0xfffff277, DUTout: 0xf2afea5c, REFout: 0xf2afea5c
# PASS: opcode 100011, funct 101111
# 	A: 0xf2aff7e5, B: 0xfffff277, DUTout: 0xf2afea5c, REFout: 0xf2afea5c
# PASS: opcode 100100, funct 101111
# 	A: 0xf2aff7e5, B: 0xfffff277, DUTout: 0xf2afea5c, REFout: 0xf2afea5c
# PASS: opcode 100101, funct 101111
# 	A: 0xf2aff7e5, B: 0xfffff277, DUTout: 0xf2afea5c, REFout: 0xf2afea5c
# PASS: opcode 101000, funct 101111
# 	A: 0xf2aff7e5, B: 0xfffff277, DUTout: 0xf2afea5c, REFout: 0xf2afea5c
# PASS: opcode 101001, funct 101111
# 	A: 0xf2aff7e5, B: 0xfffff277, DUTout: 0xf2afea5c, REFout: 0xf2afea5c
# PASS: opcode 101011, funct 101111
# 	A: 0xf2aff7e5, B: 0xfffff277, DUTout: 0xf2afea5c, REFout: 0xf2afea5c
# PASS: opcode 000000, funct 000000
# 	A: 0xf2aff7e5, B: 0xfffff277, DUTout: 0x00000000, REFout: 0x00000000
# PASS: opcode 000000, funct 000010
# 	A: 0xf2aff7e5, B: 0xfffff277, DUTout: 0x00000000, REFout: 0x00000000
# PASS: opcode 000000, funct 000011
# 	A: 0xf2aff7e5, B: 0xfffff277, DUTout: 0xffffffff, REFout: 0xffffffff
# PASS: opcode 000000, funct 000100
# 	A: 0xf2aff7e5, B: 0xfffff277, DUTout: 0x00000000, REFout: 0x00000000
# PASS: opcode 000000, funct 000110
# 	A: 0xf2aff7e5, B: 0xfffff277, DUTout: 0x00000000, REFout: 0x00000000
# PASS: opcode 000000, funct 000111
# 	A: 0xf2aff7e5, B: 0xfffff277, DUTout: 0xffffffff, REFout: 0xffffffff
# PASS: opcode 000000, funct 100001
# 	A: 0xf2aff7e5, B: 0xfffff277, DUTout: 0xf2afea5c, REFout: 0xf2afea5c
# PASS: opcode 000000, funct 100011
# 	A: 0xf2aff7e5, B: 0xfffff277, DUTout: 0xf2b0056e, REFout: 0xf2b0056e
# PASS: opcode 000000, funct 100100
# 	A: 0xf2aff7e5, B: 0xfffff277, DUTout: 0xf2aff265, REFout: 0xf2aff265
# PASS: opcode 000000, funct 100101
# 	A: 0xf2aff7e5, B: 0xfffff277, DUTout: 0xfffff7f7, REFout: 0xfffff7f7
# PASS: opcode 000000, funct 100110
# 	A: 0xf2aff7e5, B: 0xfffff277, DUTout: 0x0d500592, REFout: 0x0d500592
# PASS: opcode 000000, funct 100111
# 	A: 0xf2aff7e5, B: 0xfffff277, DUTout: 0x00000808, REFout: 0x00000808
# PASS: opcode 000000, funct 101010
# 	A: 0xf2aff7e5, B: 0xfffff277, DUTout: 0x00000001, REFout: 0x00000001
# PASS: opcode 000000, funct 101011
# 	A: 0xf2aff7e5, B: 0xfffff277, DUTout: 0x00000001, REFout: 0x00000001
# PASS: opcode 100000, funct 011011
# 	A: 0xc7ecdb8f, B: 0xffffe9f2, DUTout: 0xc7ecc581, REFout: 0xc7ecc581
# PASS: opcode 100001, funct 011011
# 	A: 0xc7ecdb8f, B: 0xffffe9f2, DUTout: 0xc7ecc581, REFout: 0xc7ecc581
# PASS: opcode 100011, funct 011011
# 	A: 0xc7ecdb8f, B: 0xffffe9f2, DUTout: 0xc7ecc581, REFout: 0xc7ecc581
# PASS: opcode 100100, funct 011011
# 	A: 0xc7ecdb8f, B: 0xffffe9f2, DUTout: 0xc7ecc581, REFout: 0xc7ecc581
# PASS: opcode 100101, funct 011011
# 	A: 0xc7ecdb8f, B: 0xffffe9f2, DUTout: 0xc7ecc581, REFout: 0xc7ecc581
# PASS: opcode 101000, funct 011011
# 	A: 0xc7ecdb8f, B: 0xffffe9f2, DUTout: 0xc7ecc581, REFout: 0xc7ecc581
# PASS: opcode 101001, funct 011011
# 	A: 0xc7ecdb8f, B: 0xffffe9f2, DUTout: 0xc7ecc581, REFout: 0xc7ecc581
# PASS: opcode 101011, funct 011011
# 	A: 0xc7ecdb8f, B: 0xffffe9f2, DUTout: 0xc7ecc581, REFout: 0xc7ecc581
# PASS: opcode 000000, funct 000000
# 	A: 0xc7ecdb8f, B: 0xffffe9f2, DUTout: 0x00000000, REFout: 0x00000000
# PASS: opcode 000000, funct 000010
# 	A: 0xc7ecdb8f, B: 0xffffe9f2, DUTout: 0x00000000, REFout: 0x00000000
# PASS: opcode 000000, funct 000011
# 	A: 0xc7ecdb8f, B: 0xffffe9f2, DUTout: 0xffffffff, REFout: 0xffffffff
# PASS: opcode 000000, funct 000100
# 	A: 0xc7ecdb8f, B: 0xffffe9f2, DUTout: 0x00000000, REFout: 0x00000000
# PASS: opcode 000000, funct 000110
# 	A: 0xc7ecdb8f, B: 0xffffe9f2, DUTout: 0x00000000, REFout: 0x00000000
# PASS: opcode 000000, funct 000111
# 	A: 0xc7ecdb8f, B: 0xffffe9f2, DUTout: 0xffffffff, REFout: 0xffffffff
# PASS: opcode 000000, funct 100001
# 	A: 0xc7ecdb8f, B: 0xffffe9f2, DUTout: 0xc7ecc581, REFout: 0xc7ecc581
# PASS: opcode 000000, funct 100011
# 	A: 0xc7ecdb8f, B: 0xffffe9f2, DUTout: 0xc7ecf19d, REFout: 0xc7ecf19d
# PASS: opcode 000000, funct 100100
# 	A: 0xc7ecdb8f, B: 0xffffe9f2, DUTout: 0xc7ecc982, REFout: 0xc7ecc982
# PASS: opcode 000000, funct 100101
# 	A: 0xc7ecdb8f, B: 0xffffe9f2, DUTout: 0xfffffbff, REFout: 0xfffffbff
# PASS: opcode 000000, funct 100110
# 	A: 0xc7ecdb8f, B: 0xffffe9f2, DUTout: 0x3813327d, REFout: 0x3813327d
# PASS: opcode 000000, funct 100111
# 	A: 0xc7ecdb8f, B: 0xffffe9f2, DUTout: 0x00000400, REFout: 0x00000400
# PASS: opcode 000000, funct 101010
# 	A: 0xc7ecdb8f, B: 0xffffe9f2, DUTout: 0x00000001, REFout: 0x00000001
# PASS: opcode 000000, funct 101011
# 	A: 0xc7ecdb8f, B: 0xffffe9f2, DUTout: 0x00000001, REFout: 0x00000001
# PASS: opcode 100000, funct 001011
# 	A: 0xf4007ae8, B: 0xffffcec5, DUTout: 0xf40049ad, REFout: 0xf40049ad
# PASS: opcode 100001, funct 001011
# 	A: 0xf4007ae8, B: 0xffffcec5, DUTout: 0xf40049ad, REFout: 0xf40049ad
# PASS: opcode 100011, funct 001011
# 	A: 0xf4007ae8, B: 0xffffcec5, DUTout: 0xf40049ad, REFout: 0xf40049ad
# PASS: opcode 100100, funct 001011
# 	A: 0xf4007ae8, B: 0xffffcec5, DUTout: 0xf40049ad, REFout: 0xf40049ad
# PASS: opcode 100101, funct 001011
# 	A: 0xf4007ae8, B: 0xffffcec5, DUTout: 0xf40049ad, REFout: 0xf40049ad
# PASS: opcode 101000, funct 001011
# 	A: 0xf4007ae8, B: 0xffffcec5, DUTout: 0xf40049ad, REFout: 0xf40049ad
# PASS: opcode 101001, funct 001011
# 	A: 0xf4007ae8, B: 0xffffcec5, DUTout: 0xf40049ad, REFout: 0xf40049ad
# PASS: opcode 101011, funct 001011
# 	A: 0xf4007ae8, B: 0xffffcec5, DUTout: 0xf40049ad, REFout: 0xf40049ad
# PASS: opcode 000000, funct 000000
# 	A: 0xf4007ae8, B: 0xffffcec5, DUTout: 0x00000000, REFout: 0x00000000
# PASS: opcode 000000, funct 000010
# 	A: 0xf4007ae8, B: 0xffffcec5, DUTout: 0x00000000, REFout: 0x00000000
# PASS: opcode 000000, funct 000011
# 	A: 0xf4007ae8, B: 0xffffcec5, DUTout: 0xffffffff, REFout: 0xffffffff
# PASS: opcode 000000, funct 000100
# 	A: 0xf4007ae8, B: 0xffffcec5, DUTout: 0x00000000, REFout: 0x00000000
# PASS: opcode 000000, funct 000110
# 	A: 0xf4007ae8, B: 0xffffcec5, DUTout: 0x00000000, REFout: 0x00000000
# PASS: opcode 000000, funct 000111
# 	A: 0xf4007ae8, B: 0xffffcec5, DUTout: 0xffffffff, REFout: 0xffffffff
# PASS: opcode 000000, funct 100001
# 	A: 0xf4007ae8, B: 0xffffcec5, DUTout: 0xf40049ad, REFout: 0xf40049ad
# PASS: opcode 000000, funct 100011
# 	A: 0xf4007ae8, B: 0xffffcec5, DUTout: 0xf400ac23, REFout: 0xf400ac23
# PASS: opcode 000000, funct 100100
# 	A: 0xf4007ae8, B: 0xffffcec5, DUTout: 0xf4004ac0, REFout: 0xf4004ac0
# PASS: opcode 000000, funct 100101
# 	A: 0xf4007ae8, B: 0xffffcec5, DUTout: 0xfffffeed, REFout: 0xfffffeed
# PASS: opcode 000000, funct 100110
# 	A: 0xf4007ae8, B: 0xffffcec5, DUTout: 0x0bffb42d, REFout: 0x0bffb42d
# PASS: opcode 000000, funct 100111
# 	A: 0xf4007ae8, B: 0xffffcec5, DUTout: 0x00000112, REFout: 0x00000112
# PASS: opcode 000000, funct 101010
# 	A: 0xf4007ae8, B: 0xffffcec5, DUTout: 0x00000001, REFout: 0x00000001
# PASS: opcode 000000, funct 101011
# 	A: 0xf4007ae8, B: 0xffffcec5, DUTout: 0x00000001, REFout: 0x00000001
# PASS: opcode 100000, funct 010000
# 	A: 0xde8e28bd, B: 0xffffd82d, DUTout: 0xde8e00ea, REFout: 0xde8e00ea
# PASS: opcode 100001, funct 010000
# 	A: 0xde8e28bd, B: 0xffffd82d, DUTout: 0xde8e00ea, REFout: 0xde8e00ea
# PASS: opcode 100011, funct 010000
# 	A: 0xde8e28bd, B: 0xffffd82d, DUTout: 0xde8e00ea, REFout: 0xde8e00ea
# PASS: opcode 100100, funct 010000
# 	A: 0xde8e28bd, B: 0xffffd82d, DUTout: 0xde8e00ea, REFout: 0xde8e00ea
# PASS: opcode 100101, funct 010000
# 	A: 0xde8e28bd, B: 0xffffd82d, DUTout: 0xde8e00ea, REFout: 0xde8e00ea
# PASS: opcode 101000, funct 010000
# 	A: 0xde8e28bd, B: 0xffffd82d, DUTout: 0xde8e00ea, REFout: 0xde8e00ea
# PASS: opcode 101001, funct 010000
# 	A: 0xde8e28bd, B: 0xffffd82d, DUTout: 0xde8e00ea, REFout: 0xde8e00ea
# PASS: opcode 101011, funct 010000
# 	A: 0xde8e28bd, B: 0xffffd82d, DUTout: 0xde8e00ea, REFout: 0xde8e00ea
# PASS: opcode 000000, funct 000000
# 	A: 0xde8e28bd, B: 0xffffd82d, DUTout: 0x00000000, REFout: 0x00000000
# PASS: opcode 000000, funct 000010
