lab2/sim/build/transcript
proc start {m} {vsim -L unisims_ver -L unimacro_ver -L xilinxcorelib_ver -L secureip work.glbl $m}
set MODULE ALUTestVectorTestbench
# ALUTestVectorTestbench
start $MODULE
# vsim -L unisims_ver -L unimacro_ver -L xilinxcorelib_ver -L secureip work.glbl ALUTestVectorTestbench 
# ** Note: (vsim-3812) Design is being optimized...
# //  ModelSim SE-64 10.1b_2 Jul  3 2012 Linux 2.6.32-279.5.2.el6.centos.plus.x86_64
# //
# //  Copyright 1991-2012 Mentor Graphics Corporation
# //  All Rights Reserved.
# //
# //  THIS WORK CONTAINS TRADE SECRET AND PROPRIETARY INFORMATION
# //  WHICH IS THE PROPERTY OF MENTOR GRAPHICS CORPORATION OR ITS
# //  LICENSORS AND IS SUBJECT TO LICENSE TERMS.
# //
# Loading work.glbl(fast)
# Loading work.ALUTestVectorTestbench(fast)
# Loading work.ALUdec(fast)
# Loading work.ALU(fast)
add wave $MODULE/*
add wave $MODULE/DUT1/*
add wave $MODULE/DUT2/*
run 100us
# PASS: opcode 001111, funct 101110
# 	A: 0xa6c7a939, B: 0x00005af7, DUTout: 0x5af70000, REFout: 0x5af70000
# PASS: opcode 001101, funct 001000
# 	A: 0xe6e4168f, B: 0x0000963c, DUTout: 0xe6e496bf, REFout: 0xe6e496bf
# PASS: opcode 100000, funct 001110
# 	A: 0x1d1ee964, B: 0x000000b6, DUTout: 0x1d1eea1a, REFout: 0x1d1eea1a
# PASS: opcode 000000, funct 000011
# 	A: 0x00000018, B: 0x89fb4a26, DUTout: 0xffffff89, REFout: 0xffffff89
# PASS: opcode 000000, funct 100110
# 	A: 0xc77a1c67, B: 0xfbc32b89, DUTout: 0x3cb937ee, REFout: 0x3cb937ee
# PASS: opcode 000000, funct 101010
# 	A: 0x9bbe8e07, B: 0xd6b6ee4d, DUTout: 0x00000001, REFout: 0x00000001
# PASS: opcode 000000, funct 000010
# 	A: 0x0000001b, B: 0xe189be60, DUTout: 0x0000001c, REFout: 0x0000001c
# PASS: opcode 000000, funct 000000
# 	A: 0x00000017, B: 0x7b454a6c, DUTout: 0x36000000, REFout: 0x36000000
# PASS: opcode 000000, funct 000111
# 	A: 0x0000001c, B: 0xd27a01fc, DUTout: 0xfffffffd, REFout: 0xfffffffd
# PASS: opcode 000000, funct 100011
# 	A: 0x6c8938bf, B: 0x335edb18, DUTout: 0x392a5da7, REFout: 0x392a5da7
# PASS: opcode 000000, funct 100100
# 	A: 0x3acb2d07, B: 0xca7a652f, DUTout: 0x0a4a2507, REFout: 0x0a4a2507
# PASS: opcode 000000, funct 100001
# 	A: 0xfaf46c35, B: 0x54422bc9, DUTout: 0x4f3697fe, REFout: 0x4f3697fe
# PASS: opcode 000000, funct 000100
# 	A: 0x00000014, B: 0xafed96b4, DUTout: 0x6b400000, REFout: 0x6b400000
# PASS: opcode 000000, funct 101011
# 	A: 0xf72c9019, B: 0x329d62eb, DUTout: 0x00000000, REFout: 0x00000000
# PASS: opcode 000000, funct 000110
# 	A: 0x00000006, B: 0xb41046a7, DUTout: 0x02d0411a, REFout: 0x02d0411a
# PASS: opcode 000000, funct 100101
# 	A: 0x485d5c1e, B: 0x8e619cc1, DUTout: 0xce7ddcdf, REFout: 0xce7ddcdf
# PASS: opcode 000000, funct 100111
# 	A: 0xf267ba71, B: 0x1bf47d2b, DUTout: 0x04080084, REFout: 0x04080084
# PASS: opcode 001011, funct 110000
# 	A: 0x832d7f66, B: 0x00000ec1, DUTout: 0x00000000, REFout: 0x00000000
# PASS: opcode 001010, funct 000111
# 	A: 0x3f135c78, B: 0x00001b32, DUTout: 0x00000000, REFout: 0x00000000
# PASS: opcode 001100, funct 011110
# 	A: 0x77344253, B: 0x0000c3ec, DUTout: 0x00004240, REFout: 0x00004240
# PASS: opcode 101011, funct 010100
# 	A: 0x7514fa3e, B: 0xffff88f4, DUTout: 0x75148332, REFout: 0x75148332
# PASS: opcode 100001, funct 000011
# 	A: 0x46bf6da9, B: 0x00004eab, DUTout: 0x46bfbc54, REFout: 0x46bfbc54
# PASS: opcode 100011, funct 010111
# 	A: 0x42493044, B: 0x00006d86, DUTout: 0x42499dca, REFout: 0x42499dca
# PASS: opcode 100101, funct 110110
# 	A: 0x20fe1e49, B: 0xfffffa42, DUTout: 0x20fe188b, REFout: 0x20fe188b
# PASS: opcode 101001, funct 101110
# 	A: 0x53a859ff, B: 0xffffb796, DUTout: 0x53a81195, REFout: 0x53a81195
# PASS: opcode 101000, funct 010110
# 	A: 0xb86d8f2f, B: 0x00000af9, DUTout: 0xb86d9a28, REFout: 0xb86d9a28
# PASS: opcode 001110, funct 011000
# 	A: 0xb132fc2e, B: 0x0000ee36, DUTout: 0xb1321218, REFout: 0xb1321218
# PASS: opcode 100100, funct 011000
# 	A: 0xea527543, B: 0x0000461b, DUTout: 0xea52bb5e, REFout: 0xea52bb5e
# PASS: opcode 001001, funct 000000
# 	A: 0xed7288c7, B: 0xffffb2bc, DUTout: 0xed723b83, REFout: 0xed723b83
# PASS: opcode 001111, funct 110110
# 	A: 0xc4bb4d3e, B: 0x0000867b, DUTout: 0x867b0000, REFout: 0x867b0000
# PASS: opcode 001101, funct 110110
# 	A: 0x425a2a5f, B: 0x0000a13f, DUTout: 0x425aab7f, REFout: 0x425aab7f
# PASS: opcode 100000, funct 000000
# 	A: 0xfd61751b, B: 0xffffaacc, DUTout: 0xfd611fe7, REFout: 0xfd611fe7
# PASS: opcode 000000, funct 000011
# 	A: 0x00000012, B: 0xe06314e9, DUTout: 0xfffff818, REFout: 0xfffff818
# PASS: opcode 000000, funct 100110
# 	A: 0xfe1fdad9, B: 0x0d5df482, DUTout: 0xf3422e5b, REFout: 0xf3422e5b
# PASS: opcode 000000, funct 101010
# 	A: 0x4f03a994, B: 0x55dfc80a, DUTout: 0x00000001, REFout: 0x00000001
# PASS: opcode 000000, funct 000010
# 	A: 0x00000014, B: 0x4f3b28fd, DUTout: 0x000004f3, REFout: 0x000004f3
# PASS: opcode 000000, funct 000000
# 	A: 0x0000000a, B: 0x0068b07a, DUTout: 0xa2c1e800, REFout: 0xa2c1e800
# PASS: opcode 000000, funct 000111
# 	A: 0x00000016, B: 0xaec56db1, DUTout: 0xfffffebb, REFout: 0xfffffebb
# PASS: opcode 000000, funct 100011
# 	A: 0x7eea9da3, B: 0x64f240b3, DUTout: 0x19f85cf0, REFout: 0x19f85cf0
# PASS: opcode 000000, funct 100100
# 	A: 0xfee88e20, B: 0xef0dcd96, DUTout: 0xee088c00, REFout: 0xee088c00
# PASS: opcode 000000, funct 100001
# 	A: 0x2b08513c, B: 0x31a39bfc, DUTout: 0x5cabed38, REFout: 0x5cabed38
# PASS: opcode 000000, funct 000100
# 	A: 0x0000001d, B: 0xab01e2dd, DUTout: 0xa0000000, REFout: 0xa0000000
# PASS: opcode 000000, funct 101011
# 	A: 0xad9b7c70, B: 0xe3bd66ea, DUTout: 0x00000001, REFout: 0x00000001
# PASS: opcode 000000, funct 000110
# 	A: 0x0000000a, B: 0x053c95d1, DUTout: 0x00014f25, REFout: 0x00014f25
# PASS: opcode 000000, funct 100101
# 	A: 0xdbaaec7a, B: 0xc7c74829, DUTout: 0xdfefec7b, REFout: 0xdfefec7b
# PASS: opcode 000000, funct 100111
# 	A: 0xa372cb65, B: 0x2f99c2f5, DUTout: 0x5004340a, REFout: 0x5004340a
# PASS: opcode 001011, funct 000000
# 	A: 0xf19a617e, B: 0x00000da5, DUTout: 0x00000000, REFout: 0x00000000
# PASS: opcode 001010, funct 111010
# 	A: 0x04705c95, B: 0xffff8bd4, DUTout: 0x00000000, REFout: 0x00000000
# PASS: opcode 001100, funct 101010
# 	A: 0x56ac0bc7, B: 0x0000a031, DUTout: 0x00000001, REFout: 0x00000001
# PASS: opcode 101011, funct 110100
# 	A: 0x5808cb24, B: 0x00005171, DUTout: 0x58091c95, REFout: 0x58091c95
# PASS: opcode 100001, funct 101010
# 	A: 0x165bbc37, B: 0xffffd57d, DUTout: 0x165b91b4, REFout: 0x165b91b4
# PASS: opcode 100011, funct 100100
# 	A: 0xde937655, B: 0xffffcfff, DUTout: 0xde934654, REFout: 0xde934654
# PASS: opcode 100101, funct 100001
# 	A: 0xa3ac065e, B: 0xffffd18b, DUTout: 0xa3abd7e9, REFout: 0xa3abd7e9
# PASS: opcode 101001, funct 110100
# 	A: 0x3bcb7a67, B: 0xffff9b17, DUTout: 0x3bcb157e, REFout: 0x3bcb157e
# PASS: opcode 101000, funct 011010
# 	A: 0x02bcfbd2, B: 0xffffac12, DUTout: 0x02bca7e4, REFout: 0x02bca7e4
# PASS: opcode 001110, funct 010100
# 	A: 0xb35719b5, B: 0x0000ebe1, DUTout: 0xb357f254, REFout: 0xb357f254
# PASS: opcode 100100, funct 110010
# 	A: 0x0c6613e0, B: 0xffffb977, DUTout: 0x0c65cd57, REFout: 0x0c65cd57
# PASS: opcode 001001, funct 011011
# 	A: 0x1f11e1de, B: 0xffffb7ae, DUTout: 0x1f11998c, REFout: 0x1f11998c
# PASS: opcode 001111, funct 000011
# 	A: 0x7b66fd8d, B: 0x00001dcb, DUTout: 0x1dcb0000, REFout: 0x1dcb0000
# PASS: opcode 001101, funct 000100
# 	A: 0x71c33a8a, B: 0x000003a7, DUTout: 0x71c33baf, REFout: 0x71c33baf
# PASS: opcode 100000, funct 010011
# 	A: 0x1febca38, B: 0x00006fbe, DUTout: 0x1fec39f6, REFout: 0x1fec39f6
# PASS: opcode 000000, funct 000011
# 	A: 0x00000008, B: 0xd46f626a, DUTout: 0xffd46f62, REFout: 0xffd46f62
# PASS: opcode 000000, funct 100110
# 	A: 0x1b34f8d4, B: 0xa25ca698, DUTout: 0xb9685e4c, REFout: 0xb9685e4c
# PASS: opcode 000000, funct 101010
# 	A: 0x1d333bec, B: 0x271c7839, DUTout: 0x00000001, REFout: 0x00000001
# PASS: opcode 000000, funct 000010
# 	A: 0x00000006, B: 0x2ee1a201, DUTout: 0x00bb8688, REFout: 0x00bb8688
# PASS: opcode 000000, funct 000000
# 	A: 0x00000010, B: 0x544bd624, DUTout: 0xd6240000, REFout: 0xd6240000
# PASS: opcode 000000, funct 000111
# 	A: 0x0000000d, B: 0xe1da7b54, DUTout: 0xffff0ed3, REFout: 0xffff0ed3
# PASS: opcode 000000, funct 100011
# 	A: 0x74a2d516, B: 0x05264f11, DUTout: 0x6f7c8605, REFout: 0x6f7c8605
# PASS: opcode 000000, funct 100100
# 	A: 0x41369fdc, B: 0x37115cfd, DUTout: 0x01101cdc, REFout: 0x01101cdc
# PASS: opcode 000000, funct 100001
# 	A: 0x48884608, B: 0x36a07959, DUTout: 0x7f28bf61, REFout: 0x7f28bf61
# PASS: opcode 000000, funct 000100
# 	A: 0x00000015, B: 0xd1696ea8, DUTout: 0xd5000000, REFout: 0xd5000000
# PASS: opcode 000000, funct 101011
# 	A: 0x586d12d7, B: 0xb33c0e4d, DUTout: 0x00000001, REFout: 0x00000001
# PASS: opcode 000000, funct 000110
# 	A: 0x0000000b, B: 0xc8e229ef, DUTout: 0x00191c45, REFout: 0x00191c45
# PASS: opcode 000000, funct 100101
# 	A: 0xe003bc3b, B: 0xccd20e63, DUTout: 0xecd3be7b, REFout: 0xecd3be7b
# PASS: opcode 000000, funct 100111
# 	A: 0x28f371b2, B: 0x592ffb92, DUTout: 0x8600044d, REFout: 0x8600044d
# PASS: opcode 001011, funct 110001
# 	A: 0x275618a2, B: 0x000001f3, DUTout: 0x00000000, REFout: 0x00000000
# PASS: opcode 001010, funct 110100
# 	A: 0x2775639a, B: 0x000012af, DUTout: 0x00000000, REFout: 0x00000000
# PASS: opcode 001100, funct 100010
# 	A: 0x2c484e93, B: 0x0000aa32, DUTout: 0x00000a12, REFout: 0x00000a12
# PASS: opcode 101011, funct 001100
# 	A: 0x479e6fc0, B: 0xffffe119, DUTout: 0x479e50d9, REFout: 0x479e50d9
# PASS: opcode 100001, funct 100011
# 	A: 0xecc921ec, B: 0x00004105, DUTout: 0xecc962f1, REFout: 0xecc962f1
# PASS: opcode 100011, funct 111111
# 	A: 0x5d82c4eb, B: 0x00006dd3, DUTout: 0x5d8332be, REFout: 0x5d8332be
# PASS: opcode 100101, funct 001001
# 	A: 0x23350c0b, B: 0xfffffa46, DUTout: 0x23350651, REFout: 0x23350651
# PASS: opcode 101001, funct 110011
# 	A: 0x7a4c31d9, B: 0x00007d6d, DUTout: 0x7a4caf46, REFout: 0x7a4caf46
# PASS: opcode 101000, funct 101011
# 	A: 0x16962d8a, B: 0xffffee6d, DUTout: 0x16961bf7, REFout: 0x16961bf7
# PASS: opcode 001110, funct 010000
# 	A: 0x9cb790d1, B: 0x0000c0c8, DUTout: 0x9cb75019, REFout: 0x9cb75019
# PASS: opcode 100100, funct 011110
# 	A: 0x36e7567f, B: 0x00004683, DUTout: 0x36e79d02, REFout: 0x36e79d02
# PASS: opcode 001001, funct 101110
# 	A: 0x1efc7da6, B: 0x00007869, DUTout: 0x1efcf60f, REFout: 0x1efcf60f
# PASS: opcode 001111, funct 011101
# 	A: 0xb6829e63, B: 0x0000a96e, DUTout: 0xa96e0000, REFout: 0xa96e0000
# PASS: opcode 001101, funct 101000
# 	A: 0xa407b2ca, B: 0x0000127b, DUTout: 0xa407b2fb, REFout: 0xa407b2fb
# PASS: opcode 100000, funct 110010
# 	A: 0x35eaef65, B: 0xffff80f5, DUTout: 0x35ea705a, REFout: 0x35ea705a
# PASS: opcode 000000, funct 000011
# 	A: 0x00000003, B: 0xd907e329, DUTout: 0xfb20fc65, REFout: 0xfb20fc65
# PASS: opcode 000000, funct 100110
# 	A: 0x29e303b6, B: 0x0e3a1739, DUTout: 0x27d9148f, REFout: 0x27d9148f
# PASS: opcode 000000, funct 101010
# 	A: 0x85a10450, B: 0x580585b0, DUTout: 0x00000001, REFout: 0x00000001
# PASS: opcode 000000, funct 000010
# 	A: 0x0000001a, B: 0x3f682999, DUTout: 0x0000000f, REFout: 0x0000000f
# PASS: opcode 000000, funct 000000
# 	A: 0x0000001b, B: 0xb6601cd8, DUTout: 0xc0000000, REFout: 0xc0000000
# PASS: opcode 000000, funct 000111
# 	A: 0x0000000f, B: 0xd3fe9476, DUTout: 0xffffa7fd, REFout: 0xffffa7fd
# PASS: opcode 000000, funct 100011
# 	A: 0x3f042fef, B: 0x38326c39, DUTout: 0x06d1c3b6, REFout: 0x06d1c3b6
# PASS: opcode 000000, funct 100100
# 	A: 0xac966c17, B: 0x777f29b0, DUTout: 0x24162810, REFout: 0x24162810
# PASS: opcode 000000, funct 100001
# 	A: 0xa2ca17d1, B: 0x493da951, DUTout: 0xec07c122, REFout: 0xec07c122
# PASS: opcode 000000, funct 000100
# 	A: 0x0000001f, B: 0xe27f7b90, DUTout: 0x00000000, REFout: 0x00000000
# PASS: opcode 000000, funct 101011
# 	A: 0xe85aa7b0, B: 0x30e7d1e4, DUTout: 0x00000000, REFout: 0x00000000
# PASS: opcode 000000, funct 000110
# 	A: 0x0000000d, B: 0xf1392292, DUTout: 0x000789c9, REFout: 0x000789c9
# PASS: opcode 000000, funct 100101
# 	A: 0x0d392689, B: 0xb33713b6, DUTout: 0xbf3f37bf, REFout: 0xbf3f37bf
# PASS: opcode 000000, funct 100111
# 	A: 0x8081889d, B: 0x500213d7, DUTout: 0x2f7c6420, REFout: 0x2f7c6420
# PASS: opcode 001011, funct 000101
# 	A: 0xd869bbbf, B: 0x00000c2b, DUTout: 0x00000000, REFout: 0x00000000
# PASS: opcode 001010, funct 111111
# 	A: 0xac62ab9d, B: 0xffffe656, DUTout: 0x00000001, REFout: 0x00000001
# PASS: opcode 001100, funct 000010
# 	A: 0xe140bc61, B: 0x00005c46, DUTout: 0x00001c40, REFout: 0x00001c40
# PASS: opcode 101011, funct 011010
# 	A: 0xfc30085e, B: 0xffff8561, DUTout: 0xfc2f8dbf, REFout: 0xfc2f8dbf
# PASS: opcode 100001, funct 100101
# 	A: 0x08df998a, B: 0x000003ed, DUTout: 0x08df9d77, REFout: 0x08df9d77
# PASS: opcode 100011, funct 110011
# 	A: 0x3fa16744, B: 0x00005b22, DUTout: 0x3fa1c266, REFout: 0x3fa1c266
# PASS: opcode 100101, funct 101100
# 	A: 0x987b1622, B: 0xfffff0c0, DUTout: 0x987b06e2, REFout: 0x987b06e2
# PASS: opcode 101001, funct 000110
# 	A: 0x58b91817, B: 0x00002845, DUTout: 0x58b9405c, REFout: 0x58b9405c
# PASS: opcode 101000, funct 011101
# 	A: 0xc771e569, B: 0xffff94c3, DUTout: 0xc7717a2c, REFout: 0xc7717a2c
# PASS: opcode 001110, funct 101111
# 	A: 0x23d93489, B: 0x00005eba, DUTout: 0x23d96a33, REFout: 0x23d96a33
# PASS: opcode 100100, funct 011011
# 	A: 0x44e890d4, B: 0x00007e18, DUTout: 0x44e90eec, REFout: 0x44e90eec
# PASS: opcode 001001, funct 011010
# 	A: 0xbaf1ff22, B: 0xffffc897, DUTout: 0xbaf1c7b9, REFout: 0xbaf1c7b9
# PASS: opcode 001111, funct 000110
# 	A: 0xc34259aa, B: 0x0000e220, DUTout: 0xe2200000, REFout: 0xe2200000
# PASS: opcode 001101, funct 011101
# 	A: 0x3d1eaf7e, B: 0x0000a5a7, DUTout: 0x3d1eafff, REFout: 0x3d1eafff
# PASS: opcode 100000, funct 011000
# 	A: 0xf1d807db, B: 0x00007c50, DUTout: 0xf1d8842b, REFout: 0xf1d8842b
# PASS: opcode 000000, funct 000011
# 	A: 0x00000002, B: 0xa0b61213, DUTout: 0xe82d8484, REFout: 0xe82d8484
# PASS: opcode 000000, funct 100110
# 	A: 0x7754358b, B: 0x7f9d142d, DUTout: 0x08c921a6, REFout: 0x08c921a6
# PASS: opcode 000000, funct 101010
# 	A: 0x55f2e156, B: 0xd350f12f, DUTout: 0x00000000, REFout: 0x00000000
# PASS: opcode 000000, funct 000010
# 	A: 0x0000000f, B: 0xfaffd42a, DUTout: 0x0001f5ff, REFout: 0x0001f5ff
# PASS: opcode 000000, funct 000000
# 	A: 0x0000000a, B: 0xc606504e, DUTout: 0x19413800, REFout: 0x19413800
# PASS: opcode 000000, funct 000111
# 	A: 0x00000001, B: 0xd003c56e, DUTout: 0xe801e2b7, REFout: 0xe801e2b7
# PASS: opcode 000000, funct 100011
# 	A: 0x21be3921, B: 0xd6c153cd, DUTout: 0x4afce554, REFout: 0x4afce554
# PASS: opcode 000000, funct 100100
# 	A: 0x764d321a, B: 0x85526a91, DUTout: 0x04402210, REFout: 0x04402210
# PASS: opcode 000000, funct 100001
# 	A: 0xcfb87e25, B: 0x841ddc2a, DUTout: 0x53d65a4f, REFout: 0x53d65a4f
# PASS: opcode 000000, funct 000100
# 	A: 0x0000000f, B: 0x76a3f468, DUTout: 0xfa340000, REFout: 0xfa340000
# PASS: opcode 000000, funct 101011
# 	A: 0xf75675f4, B: 0xe4808ad5, DUTout: 0x00000000, REFout: 0x00000000
# PASS: opcode 000000, funct 000110
# 	A: 0x00000010, B: 0xe73eb538, DUTout: 0x0000e73e, REFout: 0x0000e73e
# PASS: opcode 000000, funct 100101
# 	A: 0x34520568, B: 0x26772fbe, DUTout: 0x36772ffe, REFout: 0x36772ffe
# PASS: opcode 000000, funct 100111
# 	A: 0x14afe938, B: 0xe382687d, DUTout: 0x08501682, REFout: 0x08501682
# PASS: opcode 001011, funct 100101
# 	A: 0x54ac292f, B: 0x00000438, DUTout: 0x00000000, REFout: 0x00000000
# PASS: opcode 001010, funct 110000
# 	A: 0x2c9ce6d5, B: 0xffff97d4, DUTout: 0x00000000, REFout: 0x00000000
# PASS: opcode 001100, funct 111100
# 	A: 0x07eee296, B: 0x0000212c, DUTout: 0x00002004, REFout: 0x00002004
# PASS: opcode 101011, funct 111101
# 	A: 0x00db3975, B: 0x00000c86, DUTout: 0x00db45fb, REFout: 0x00db45fb
# PASS: opcode 100001, funct 101100
# 	A: 0xb54ea4a8, B: 0x00000fdc, DUTout: 0xb54eb484, REFout: 0xb54eb484
# PASS: opcode 100011, funct 100000
# 	A: 0xa4867e86, B: 0x0000100a, DUTout: 0xa4868e90, REFout: 0xa4868e90
# PASS: opcode 100101, funct 101110
# 	A: 0x4c08ba0b, B: 0x00000f91, DUTout: 0x4c08c99c, REFout: 0x4c08c99c
# PASS: opcode 101001, funct 000011
# 	A: 0x85c9de36, B: 0xfffff1ea, DUTout: 0x85c9d020, REFout: 0x85c9d020
# PASS: opcode 101000, funct 110100
# 	A: 0xe220c26d, B: 0xffffcc76, DUTout: 0xe2208ee3, REFout: 0xe2208ee3
# PASS: opcode 001110, funct 111010
# 	A: 0xf21cd808, B: 0x00008fef, DUTout: 0xf21c57e7, REFout: 0xf21c57e7
# PASS: opcode 100100, funct 000000
# 	A: 0xf2c195c5, B: 0x00000b62, DUTout: 0xf2c1a127, REFout: 0xf2c1a127
# PASS: opcode 001001, funct 100011
# 	A: 0x933ca31b, B: 0x000062b5, DUTout: 0x933d05d0, REFout: 0x933d05d0
# PASS: opcode 001111, funct 010101
# 	A: 0x89a4e8b0, B: 0x0000ab09, DUTout: 0xab090000, REFout: 0xab090000
# PASS: opcode 001101, funct 110010
# 	A: 0x014b99e3, B: 0x000092b7, DUTout: 0x014b9bf7, REFout: 0x014b9bf7
# PASS: opcode 100000, funct 011001
# 	A: 0x30086989, B: 0x00007f3e, DUTout: 0x3008e8c7, REFout: 0x3008e8c7
# PASS: opcode 000000, funct 000011
# 	A: 0x00000002, B: 0xbd43030d, DUTout: 0xef50c0c3, REFout: 0xef50c0c3
# PASS: opcode 000000, funct 100110
# 	A: 0xf2ce48d3, B: 0xd1fb63a4, DUTout: 0x23352b77, REFout: 0x23352b77
# PASS: opcode 000000, funct 101010
# 	A: 0x5aae643a, B: 0xf38e5cb6, DUTout: 0x00000000, REFout: 0x00000000
# PASS: opcode 000000, funct 000010
# 	A: 0x00000017, B: 0x349aa877, DUTout: 0x00000069, REFout: 0x00000069
# PASS: opcode 000000, funct 000000
# 	A: 0x0000000a, B: 0x71e5fb1b, DUTout: 0x97ec6c00, REFout: 0x97ec6c00
# PASS: opcode 000000, funct 000111
# 	A: 0x0000001a, B: 0x95f5cbc8, DUTout: 0xffffffe5, REFout: 0xffffffe5
# PASS: opcode 000000, funct 100011
# 	A: 0x4d857ea9, B: 0xc4a579e0, DUTout: 0x88e004c9, REFout: 0x88e004c9
# PASS: opcode 000000, funct 100100
# 	A: 0x4fe70430, B: 0xe7343371, DUTout: 0x47240030, REFout: 0x47240030
# PASS: opcode 000000, funct 100001
# 	A: 0x93b02498, B: 0x9ea05912, DUTout: 0x32507daa, REFout: 0x32507daa
# PASS: opcode 000000, funct 000100
# 	A: 0x00000002, B: 0xe70da8cb, DUTout: 0x9c36a32c, REFout: 0x9c36a32c
# PASS: opcode 000000, funct 101011
# 	A: 0xb95fba47, B: 0x001de0b5, DUTout: 0x00000000, REFout: 0x00000000
# PASS: opcode 000000, funct 000110
# 	A: 0x0000000e, B: 0x890106c8, DUTout: 0x00022404, REFout: 0x00022404
# PASS: opcode 000000, funct 100101
# 	A: 0xda695776, B: 0x3464e68d, DUTout: 0xfe6df7ff, REFout: 0xfe6df7ff
# PASS: opcode 000000, funct 100111
# 	A: 0x4475b929, B: 0x187d640c, DUTout: 0xa38202d2, REFout: 0xa38202d2
# PASS: opcode 001011, funct 111000
# 	A: 0x7641eef5, B: 0x000002e7, DUTout: 0x00000000, REFout: 0x00000000
# PASS: opcode 001010, funct 110111
# 	A: 0x5d316858, B: 0x00002484, DUTout: 0x00000000, REFout: 0x00000000
# PASS: opcode 001100, funct 011010
# 	A: 0xadd855c8, B: 0x0000e685, DUTout: 0x00004480, REFout: 0x00004480
# PASS: opcode 101011, funct 001100
# 	A: 0x8e21e7f6, B: 0xffffddfb, DUTout: 0x8e21c5f1, REFout: 0x8e21c5f1
# PASS: opcode 100001, funct 101100
# 	A: 0x0e4320ff, B: 0x000039cb, DUTout: 0x0e435aca, REFout: 0x0e435aca
# PASS: opcode 100011, funct 001011
# 	A: 0xf32439d8, B: 0xffffa867, DUTout: 0xf323e23f, REFout: 0xf323e23f
# PASS: opcode 100101, funct 000010
# 	A: 0xed4fd5d9, B: 0xffff85e8, DUTout: 0xed4f5bc1, REFout: 0xed4f5bc1
# PASS: opcode 101001, funct 100010
# 	A: 0x70850993, B: 0x00002fbc, DUTout: 0x7085394f, REFout: 0x7085394f
# PASS: opcode 101000, funct 101101
# 	A: 0x88af53b0, B: 0xffffd3ed, DUTout: 0x88af279d, REFout: 0x88af279d
# PASS: opcode 001110, funct 101010
# 	A: 0xa7bc8d45, B: 0x00007723, DUTout: 0xa7bcfa66, REFout: 0xa7bcfa66
# PASS: opcode 100100, funct 001011
# 	A: 0x6f0cec5b, B: 0x0000398d, DUTout: 0x6f0d25e8, REFout: 0x6f0d25e8
# PASS: opcode 001001, funct 100000
# 	A: 0x817349d8, B: 0xfffff373, DUTout: 0x81733d4b, REFout: 0x81733d4b
# PASS: opcode 001111, funct 001101
# 	A: 0xb2b705a9, B: 0x000096fc, DUTout: 0x96fc0000, REFout: 0x96fc0000
# PASS: opcode 001101, funct 111110
# 	A: 0x87cdee87, B: 0x0000e58d, DUTout: 0x87cdef8f, REFout: 0x87cdef8f
# PASS: opcode 100000, funct 101101
# 	A: 0xfbbbe5a8, B: 0x00006e44, DUTout: 0xfbbc53ec, REFout: 0xfbbc53ec
# PASS: opcode 000000, funct 000011
# 	A: 0x00000017, B: 0xfc903d87, DUTout: 0xfffffff9, REFout: 0xfffffff9
# PASS: opcode 000000, funct 100110
# 	A: 0x788cbdc5, B: 0x73de395d, DUTout: 0x0b528498, REFout: 0x0b528498
# PASS: opcode 000000, funct 101010
# 	A: 0x313a26a6, B: 0x7859c22e, DUTout: 0x00000001, REFout: 0x00000001
# PASS: opcode 000000, funct 000010
# 	A: 0x00000002, B: 0xe61ca2e3, DUTout: 0x398728b8, REFout: 0x398728b8
# PASS: opcode 000000, funct 000000
# 	A: 0x0000000c, B: 0x44e238a3, DUTout: 0x238a3000, REFout: 0x238a3000
# PASS: opcode 000000, funct 000111
# 	A: 0x00000009, B: 0xda32acb7, DUTout: 0xffed1956, REFout: 0xffed1956
# PASS: opcode 000000, funct 100011
# 	A: 0x6a31e4b6, B: 0x646cd1ec, DUTout: 0x05c512ca, REFout: 0x05c512ca
# PASS: opcode 000000, funct 100100
# 	A: 0xf0dcaf96, B: 0x9f5fbe63, DUTout: 0x905cae02, REFout: 0x905cae02
# PASS: opcode 000000, funct 100001
# 	A: 0xbb59c7de, B: 0xb18c435e, DUTout: 0x6ce60b3c, REFout: 0x6ce60b3c
# PASS: opcode 000000, funct 000100
# 	A: 0x00000005, B: 0x095c901f, DUTout: 0x2b9203e0, REFout: 0x2b9203e0
# PASS: opcode 000000, funct 101011
# 	A: 0x97d41f12, B: 0x0ff6c7ed, DUTout: 0x00000000, REFout: 0x00000000
# PASS: opcode 000000, funct 000110
# 	A: 0x00000005, B: 0xfb69f55b, DUTout: 0x07db4faa, REFout: 0x07db4faa
# PASS: opcode 000000, funct 100101
# 	A: 0xc721de9f, B: 0x5206012e, DUTout: 0xd727dfbf, REFout: 0xd727dfbf
# PASS: opcode 000000, funct 100111
# 	A: 0xf4ca4a79, B: 0x85d46644, DUTout: 0x0a219182, REFout: 0x0a219182
# PASS: opcode 001011, funct 100110
# 	A: 0x53c62e37, B: 0x00000d21, DUTout: 0x00000000, REFout: 0x00000000
# PASS: opcode 001010, funct 001100
# 	A: 0x1855620d, B: 0xffff952f, DUTout: 0x00000000, REFout: 0x00000000
# PASS: opcode 001100, funct 100111
# 	A: 0x09afb686, B: 0x0000edee, DUTout: 0x0000a486, REFout: 0x0000a486
# PASS: opcode 101011, funct 001111
# 	A: 0x745ebecf, B: 0x00001a61, DUTout: 0x745ed930, REFout: 0x745ed930
# PASS: opcode 100001, funct 000111
# 	A: 0x19835f10, B: 0xffff9b1f, DUTout: 0x1982fa2f, REFout: 0x1982fa2f
# PASS: opcode 100011, funct 001011
# 	A: 0xa45f28fe, B: 0x00002d23, DUTout: 0xa45f5621, REFout: 0xa45f5621
# PASS: opcode 100101, funct 011010
# 	A: 0xb34c1848, B: 0xffffb79b, DUTout: 0xb34bcfe3, REFout: 0xb34bcfe3
# PASS: opcode 101001, funct 110000
# 	A: 0x41892cef, B: 0x00006580, DUTout: 0x4189926f, REFout: 0x4189926f
# PASS: opcode 101000, funct 101100
# 	A: 0x18416ca7, B: 0x00001ee5, DUTout: 0x18418b8c, REFout: 0x18418b8c
# PASS: opcode 001110, funct 010011
# 	A: 0xb9310323, B: 0x00004674, DUTout: 0xb9314557, REFout: 0xb9314557
# PASS: opcode 100100, funct 111010
# 	A: 0x84c01b2b, B: 0x00004818, DUTout: 0x84c06343, REFout: 0x84c06343
# PASS: opcode 001001, funct 111001
# 	A: 0x7fc260b7, B: 0x000079d8, DUTout: 0x7fc2da8f, REFout: 0x7fc2da8f
# PASS: opcode 001111, funct 101111
# 	A: 0xaf035dee, B: 0x0000fbee, DUTout: 0xfbee0000, REFout: 0xfbee0000
# PASS: opcode 001101, funct 101101
# 	A: 0xdf3039fb, B: 0x00002387, DUTout: 0xdf303bff, REFout: 0xdf303bff
# PASS: opcode 100000, funct 110100
# 	A: 0xc97c986e, B: 0xffffaa93, DUTout: 0xc97c4301, REFout: 0xc97c4301
# PASS: opcode 000000, funct 000011
# 	A: 0x0000001e, B: 0xa9d00495, DUTout: 0xfffffffe, REFout: 0xfffffffe
# PASS: opcode 000000, funct 100110
# 	A: 0x38f484c5, B: 0x536e8dfc, DUTout: 0x6b9a0939, REFout: 0x6b9a0939
# PASS: opcode 000000, funct 101010
# 	A: 0xd4bb5304, B: 0xa7d4837a, DUTout: 0x00000000, REFout: 0x00000000
